Network Simulation using {statnet} - Social Ecological Networks Group
…
Now we will group_by the bird column and use mutate two create two new variables: sim_wingspan and sim_length. Note that we use the wingspan and length variables embedded inside of the rnorm function. The makes it so that the mean value for the random draw changes according to the group. Finally the function n() tells mutate how many rows are associated with each bird group – this is the number of random draws that we need.

# use dplyr to sim new variables
df <- df %>% group_by(bird) %>%
  mutate(sim_wingspan =  rnorm(n(), wingspan, 4), 
         sim_length = rnorm(n(), length, 4))
df

## # A tibble: 30 x 5
## # Groups:   bird [5]
##    bird      length wingspan sim_wingspan sim_length
##    <chr>      <dbl>    <dbl>        <dbl>      <dbl>
##  1 blue tit      12       18        18.3       15.2 
##  2 blue tit      12       18        17.7        6.97
##  3 blue tit      12       18         6.01      18.8 
##  4 blue tit      12       18        13.1       15.4 
##  5 blue tit      12       18        14.0       13.3 
##  6 coal tit      12       19        20.3       16.4 
##  7 coal tit      12       19        24.2       13.7 
##  8 great tit     14       24        25.3       18.1 
##  9 great tit     14       24        23.4        9.48
## 10 great tit     14       24        20.2       15.8 
## # ... with 20 more rows
…
Figure 2: Simulated wingspans and body lengths for five bird species. Dashed lines indicate wingspan and body length values from the British Trust for Ornithology.

One final step we need to take is to rescale our variables. This will make it much easier to choose coefficients that are comparable.

df <- df %>% ungroup() %>%
  mutate(s_wingspan = (sim_wingspan - mean(sim_wingspan)) / sd(sim_wingspan), 
         s_length = (sim_length - mean(sim_length))/ sd(sim_length))
df

## # A tibble: 30 x 7
##    bird      length wingspan sim_wingspan sim_length s_wingspan s_length
##    <chr>      <dbl>    <dbl>        <dbl>      <dbl>      <dbl>    <dbl>
##  1 blue tit      12       18        18.3       15.2      -0.470    0.212
##  2 blue tit      12       18        17.7        6.97     -0.578   -1.64 
##  3 blue tit      12       18         6.01      18.8      -2.59     1.03 
##  4 blue tit      12       18        13.1       15.4      -1.37     0.275
##  5 blue tit      12       18        14.0       13.3      -1.22    -0.200
##  6 coal tit      12       19        20.3       16.4      -0.127    0.493
##  7 coal tit      12       19        24.2       13.7       0.532   -0.125
##  8 great tit     14       24        25.3       18.1       0.726    0.872
##  9 great tit     14       24        23.4        9.48      0.396   -1.07 
## 10 great tit     14       24        20.2       15.8      -0.158    0.357
## # ... with 20 more rows
…
