A Brief Introduction to R - Social Ecological Networks Group
…
## [1]  0 10 20 30 50 60 70

Notice that the object indexed_vec becomes updated every time we run a new line.
Indexing a vector is straightforward, we will return to indexing for 2-D data frames.

Data Frames

mpg is another base R dataset.

#install.packages("ggplot2")
library(ggplot2) #We will return to installing and loading packages later in this document.
mpg #It's not quite a data frame yet

## # A tibble: 234 x 11
##    manufacturer model    displ  year   cyl trans   drv     cty   hwy fl    class
##    <chr>        <chr>    <dbl> <int> <int> <chr>   <chr> <int> <int> <chr> <chr>
##  1 audi         a4         1.8  1999     4 auto(l~ f        18    29 p     comp~
##  2 audi         a4         1.8  1999     4 manual~ f        21    29 p     comp~
##  3 audi         a4         2    2008     4 manual~ f        20    31 p     comp~
##  4 audi         a4         2    2008     4 auto(a~ f        21    30 p     comp~
##  5 audi         a4         2.8  1999     6 auto(l~ f        16    26 p     comp~
##  6 audi         a4         2.8  1999     6 manual~ f        18    26 p     comp~
##  7 audi         a4         3.1  2008     6 auto(a~ f        18    27 p     comp~
##  8 audi         a4 quat~   1.8  1999     4 manual~ 4        18    26 p     comp~
##  9 audi         a4 quat~   1.8  1999     4 auto(l~ 4        16    25 p     comp~
## 10 audi         a4 quat~   2    2008     4 manual~ 4        20    28 p     comp~
## # ... with 224 more rows
…
